{
    "$schema": "http://json-schema.org/draft-07/schema#",
    "type": "object",
    "properties": {
        "datetime": {
            "type": "string",
            "format": "date-time",
            "examples": [
                "2002-10-02T10:00:00-05:00",
                "2002-10-02T15:00:00Z",
                "2002-10-02T15:00:00.05Z"
            ]
        },
        "created_at": {
            "title": "created_at",
            "$ref": "#/properties/datetime"
        },
        "updated_at": {
            "title": "updated_at",
            "$ref": "#/properties/datetime"
        },
        "last_usage_at": {
            "title": "last_usage_at",
            "$ref": "#/properties/datetime"
        }
    }
}
