{
    "$schema": "http://json-schema.org/draft-07/schema#",
    "type": "object",
    "required": [
        "email",
        "password"
    ],
    "properties": {
        "email": {
            "$ref": "../../definitions/user.json#/properties/email"
        },
        "password": {
            "$ref": "../../definitions/user_password.json"
        }
    },
    "additionalProperties": false
}
