{
    "$schema": "http://json-schema.org/draft-07/schema#",
    "title": "EventsListResponse",
    "type": "object",
    "required": [
        "pagination",
        "events"
    ],
    "properties": {
        "pagination": {
            "$ref": "../../definitions/pagination.json"
        },
        "events": {
            "title": "events_list",
            "description": "Array of events",
            "type": "array",
            "items": {
                "$ref": "../../definitions/events_list_object.json"
            }
        }
    }
}
